…
gwynnda_trash_wheel = 
  readxl::read_excel("/Users/nicolechen/Downloads/p8105_hw2_mc5698/dataset/202409TrashWheelCollectionData.xlsx", sheet = "Gwynnda Trash Wheel", skip = 1) |> 
  filter(!is.na(Dumpster)) |> 
  mutate(Year = as.character(Year),
         Trash_Wheel = "Gwynnda Trash Wheel")

combined_data = 
  bind_rows(mr_trash_wheel, professor_trash_wheel, gwynnda_trash_wheel)
combined_data
```

    ## # A tibble: 1,033 × 18
    ##    Dumpster Month Year  Date                `Weight (tons)`
    ##       <dbl> <chr> <chr> <dttm>                        <dbl>
    ##  1        1 May   2014  2014-05-16 00:00:00            4.31
    ##  2        2 May   2014  2014-05-16 00:00:00            2.74
    ##  3        3 May   2014  2014-05-16 00:00:00            3.45
    ##  4        4 May   2014  2014-05-17 00:00:00            3.1 
    ##  5        5 May   2014  2014-05-17 00:00:00            4.06
    ##  6        6 May   2014  2014-05-20 00:00:00            2.71
    ##  7        7 May   2014  2014-05-21 00:00:00            1.91
    ##  8        8 May   2014  2014-05-28 00:00:00            3.7 
    ##  9        9 June  2014  2014-06-05 00:00:00            2.52
    ## 10       10 June  2014  2014-06-11 00:00:00            3.76
    ## # ℹ 1,023 more rows
    ## # ℹ 13 more variables: `Volume (cubic yards)` <dbl>, `Plastic Bottles` <dbl>,
    ## #   Polystyrene <dbl>, `Cigarette Butts` <dbl>, `Glass Bottles` <dbl>,
    ## #   `Plastic Bags` <dbl>, Wrappers <dbl>, `Sports Balls` <dbl>,
    ## #   `Homes Powered*` <dbl>, ...15 <lgl>, ...16 <lgl>, Sports_Balls <int>,
    ## #   Trash_Wheel <chr>
…
``` r
#Create a reader-friendly table showing the star baker or winner of each episode in Seasons 5 through 10
star_baker =
  final_datasets %>%
  filter(Series >= 5 & Series <= 10, Result %in% c("STAR BAKER", "WINNER")) %>%
  select(Series, Episode = Episode.x, Baker, Result) %>%
  arrange(Series, Episode)
star_baker
```

    ## # A tibble: 600 × 4
    ##    Series Episode Baker Result    
    ##     <dbl>   <dbl> <chr> <chr>     
    ##  1      5       1 nancy STAR BAKER
    ##  2      5       1 nancy STAR BAKER
    ##  3      5       1 nancy STAR BAKER
    ##  4      5       1 nancy STAR BAKER
    ##  5      5       1 nancy STAR BAKER
    ##  6      5       1 nancy STAR BAKER
    ##  7      5       1 nancy STAR BAKER
    ##  8      5       1 nancy STAR BAKER
    ##  9      5       1 nancy STAR BAKER
    ## 10      5       1 nancy STAR BAKER
    ## # ℹ 590 more rows
…
